Messung-3-Signal.CSV

Model,DPO2024
Firmware Version,1.29

Point Format,Y,
Horizontal Units,S,
Horizontal Scale,0.004,
Sample Interval,3.2e-07,
Filter Frequency,2e+08,
Record Length,125000,
Gating,0.0% to 100.0%,
Probe Attenuation,10,
Vertical Units,V,
Vertical Offset,0,
Vertical Scale,2,
Label,,
TIME,CH2,CH2 Peak Detect
-2.06400e-02,0.96,1.12
-2.06397e-02,1.04,0.88
-2.06394e-02,1.12,1.04
-2.06390e-02,1.12,0.96
-2.06387e-02,1.04,1.12
-2.06384e-02,1.04,0.96
-2.06381e-02,0.96,1.12
-2.06378e-02,0.96,0.88
-2.06374e-02,1.04,1.12
-2.06371e-02,1.04,0.88
-2.06368e-02,1.12,1.04
-2.06365e-02,1.04,0.96
-2.06362e-02,1.04,1.12
-2.06358e-02,0.96,0.96
-2.06355e-02,1.04,1.12
-2.06352e-02,1.04,0.96
-2.06349e-02,1.04,1.04
-2.06346e-02,1.04,0.96
-2.06342e-02,1.04,1.12
-2.06339e-02,1.04,0.96
-2.06336e-02,1.04,1.12
-2.06333e-02,1.04,0.96
-2.06330e-02,1.04,1.12
-2.06326e-02,1.12,0.96
-2.06323e-02,1.12,1.12
-2.06320e-02,1.12,0.96
-2.06317e-02,1.04,1.12
-2.06314e-02,1.04,0.96
-2.06310e-02,1.04,1.12
-2.06307e-02,1.04,0.96
-2.06304e-02,1.04,1.12
-2.06301e-02,1.12,0.96
-2.06298e-02,1.04,1.12
-2.06294e-02,1.04,1.04
-2.06291e-02,1.04,1.12
-2.06288e-02,1.04,0.96
-2.06285e-02,1.04,1.12
-2.06282e-02,1.04,0.96
-2.06278e-02,1.12,1.12
-2.06275e-02,1.12,0.96
-2.06272e-02,1.12,1.12
-2.06269e-02,1.04,0.96
-2.06266e-02,1.04,1.12
-2.06262e-02,1.04,0.96
-2.06259e-02,1.04,1.12
-2.06256e-02,1.12,0.96
-2.06253e-02,1.2,1.12
-2.06250e-02,1.12,1.04
-2.06246e-02,1.12,1.28
-2.06243e-02,1.12,1.04
-2.06240e-02,1.12,1.2
-2.06237e-02,1.12,1.04
-2.06234e-02,1.12,1.12
-2.06230e-02,1.04,1.04
-2.06227e-02,1.04,1.12
-2.06224e-02,1.04,0.88
-2.06221e-02,1.12,1.12
-2.06218e-02,1.12,0.96
-2.06214e-02,1.12,1.12
-2.06211e-02,1.2,1.04
-2.06208e-02,1.2,1.2
-2.06205e-02,1.2,1.12
-2.06202e-02,1.2,1.2
-2.06198e-02,1.2,1.12
-2.06195e-02,1.2,1.28
-2.06192e-02,1.12,1.12
-2.06189e-02,1.12,1.28
-2.06186e-02,1.12,1.04
-2.06182e-02,1.12,1.2
-2.06179e-02,1.12,1.04
-2.06176e-02,1.12,1.2
-2.06173e-02,1.12,1.04
-2.06170e-02,1.2,1.2
-2.06166e-02,1.2,1.04
-2.06163e-02,1.12,1.2
-2.06160e-02,1.12,1.04
-2.06157e-02,1.12,1.2
-2.06154e-02,1.04,1.04
-2.06150e-02,1.12,1.12
-2.06147e-02,1.2,1.04
-2.06144e-02,1.2,1.2
-2.06141e-02,1.2,1.04
-2.06138e-02,1.12,1.2
-2.06134e-02,1.12,1.04
-2.06131e-02,1.12,1.2
-2.06128e-02,1.12,1.04
-2.06125e-02,1.2,1.2
-2.06122e-02,1.2,1.04
-2.06118e-02,1.2,1.2
-2.06115e-02,1.12,1.12
-2.06112e-02,1.12,1.2
-2.06109e-02,1.12,1.04
-2.06106e-02,1.12,1.2
-2.06102e-02,1.2,1.04
-2.06099e-02,1.12,1.2
-2.06096e-02,1.12,1.12
-2.06093e-02,1.12,1.2
-2.06090e-02,1.12,1.12
-2.06086e-02,1.12,1.28
-2.06083e-02,1.12,1.04
-2.06080e-02,1.2,1.2
-2.06077e-02,1.2,1.04
-2.06074e-02,1.2,1.2
-2.06070e-02,1.2,1.12
-2.06067e-02,1.12,1.2
-2.06064e-02,1.12,1.04
-2.06061e-02,1.12,1.28
-2.06058e-02,1.2,1.04
-2.06054e-02,1.2,1.2
-2.06051e-02,1.2,1.12
-2.06048e-02,1.2,1.2
-2.06045e-02,1.12,1.12
-2.06042e-02,1.2,1.28
-2.06038e-02,1.2,1.04
-2.06035e-02,1.2,1.2
-2.06032e-02,1.2,1.12
-2.06029e-02,1.2,1.2
-2.06026e-02,1.2,1.12
-2.06022e-02,1.2,1.28
-2.06019e-02,1.12,1.12
-2.06016e-02,1.2,1.28
-2.06013e-02,1.2,1.12
-2.06010e-02,1.2,1.2
-2.06006e-02,1.2,1.12
-2.06003e-02,1.2,1.28
-2.06000e-02,1.2,1.12
-2.05997e-02,1.28,1.28
-2.05994e-02,1.2,1.12
-2.05990e-02,1.2,1.36
-2.05987e-02,1.12,1.12
-2.05984e-02,1.2,1.28
-2.05981e-02,1.12,1.12
-2.05978e-02,1.12,1.28
-2.05974e-02,1.12,0.96
-2.05971e-02,1.2,1.28
-2.05968e-02,1.28,1.04
-2.05965e-02,1.28,1.2
-2.05962e-02,1.28,1.12
-2.05958e-02,1.28,1.28
-2.05955e-02,1.28,1.2
-2.05952e-02,1.28,1.36
-2.05949e-02,1.28,1.2
-2.05946e-02,1.28,1.36
-2.05942e-02,1.28,1.2
-2.05939e-02,1.28,1.28
-2.05936e-02,1.28,1.2
-2.05933e-02,1.2,1.28
-2.05930e-02,1.2,1.2
-2.05926e-02,1.28,1.28
-2.05923e-02,1.28,1.12
-2.05920e-02,1.28,1.28
-2.05917e-02,1.28,1.12
-2.05914e-02,1.28,1.28
-2.05910e-02,1.2,1.2
-2.05907e-02,1.2,1.36
-2.05904e-02,1.2,1.12
-2.05901e-02,1.2,1.28
-2.05898e-02,1.2,1.12
-2.05894e-02,1.28,1.28
-2.05891e-02,1.28,1.12
-2.05888e-02,1.28,1.28
-2.05885e-02,1.2,1.2
-2.05882e-02,1.2,1.36
-2.05878e-02,1.2,1.12
-2.05875e-02,1.28,1.28
-2.05872e-02,1.28,1.12
-2.05869e-02,1.28,1.28
-2.05866e-02,1.28,1.2
-2.05862e-02,1.2,1.36
-2.05859e-02,1.2,1.2
-2.05856e-02,1.2,1.28
-2.05853e-02,1.28,1.12
-2.05850e-02,1.28,1.28
-2.05846e-02,1.28,1.12
-2.05843e-02,1.28,1.28
-2.05840e-02,1.28,1.2
-2.05837e-02,1.2,1.36
-2.05834e-02,1.2,1.2
-2.05830e-02,1.28,1.28
-2.05827e-02,1.28,1.12
-2.05824e-02,1.28,1.28
-2.05821e-02,1.28,1.2
-2.05818e-02,1.28,1.36
-2.05814e-02,1.28,1.2
-2.05811e-02,1.2,1.36
-2.05808e-02,1.28,1.2
-2.05805e-02,1.28,1.28
-2.05802e-02,1.28,1.2
-2.05798e-02,1.28,1.28
-2.05795e-02,1.28,1.2
-2.05792e-02,1.2,1.36
-2.05789e-02,1.2,1.2
-2.05786e-02,1.28,1.36
-2.05782e-02,1.28,1.12
-2.05779e-02,1.28,1.28
-2.05776e-02,1.2,1.2
-2.05773e-02,1.28,1.36
-2.05770e-02,1.2,1.2
-2.05766e-02,1.2,1.36
-2.05763e-02,1.28,1.2
-2.05760e-02,1.28,1.28
-2.05757e-02,1.28,1.2
-2.05754e-02,1.28,1.36
-2.05750e-02,1.28,1.2
-2.05747e-02,1.36,1.36
-2.05744e-02,1.36,1.2
-2.05741e-02,1.28,1.44
-2.05738e-02,1.28,1.28
-2.05734e-02,1.28,1.36
-2.05731e-02,1.28,1.2
-2.05728e-02,1.2,1.36
-2.05725e-02,1.2,1.12
-2.05722e-02,1.28,1.36
-2.05718e-02,1.36,1.12
-2.05715e-02,1.36,1.28
-2.05712e-02,1.36,1.2
-2.05709e-02,1.36,1.36
-2.05706e-02,1.36,1.28
-2.05702e-02,1.44,1.44
-2.05699e-02,1.36,1.36
-2.05696e-02,1.44,1.44
-2.05693e-02,1.36,1.36
-2.05690e-02,1.36,1.44
-2.05686e-02,1.44,1.28
-2.05683e-02,1.36,1.44
-2.05680e-02,1.36,1.28
-2.05677e-02,1.36,1.44
-2.05674e-02,1.36,1.28
-2.05670e-02,1.36,1.44
-2.05667e-02,1.36,1.28
-2.05664e-02,1.36,1.36
-2.05661e-02,1.36,1.28
-2.05658e-02,1.28,1.44
-2.05654e-02,1.28,1.28
-2.05651e-02,1.28,1.44
-2.05648e-02,1.36,1.2
-2.05645e-02,1.36,1.36
-2.05642e-02,1.44,1.2
-2.05638e-02,1.36,1.36
-2.05635e-02,1.36,1.28
-2.05632e-02,1.36,1.44
-2.05629e-02,1.28,1.28
-2.05626e-02,1.36,1.44
-2.05622e-02,1.36,1.28
-2.05619e-02,1.36,1.36
-2.05616e-02,1.36,1.28
-2.05613e-02,1.36,1.44
-2.05610e-02,1.36,1.36
-2.05606e-02,1.28,1.44
-2.05603e-02,1.36,1.28
-2.05600e-02,1.36,1.44
-2.05597e-02,1.36,1.28
-2.05594e-02,1.36,1.44
-2.05590e-02,1.36,1.28
-2.05587e-02,1.36,1.44
-2.05584e-02,1.36,1.28
-2.05581e-02,1.36,1.44
-2.05578e-02,1.36,1.28
-2.05574e-02,1.36,1.36
-2.05571e-02,1.36,1.28
-2.05568e-02,1.36,1.44
-2.05565e-02,1.36,1.28
-2.05562e-02,1.36,1.44
-2.05558e-02,1.36,1.28
-2.05555e-02,1.36,1.44
-2.05552e-02,1.36,1.28
-2.05549e-02,1.44,1.44
-2.05546e-02,1.36,1.36
-2.05542e-02,1.44,1.44
-2.05539e-02,1.36,1.36
-2.05536e-02,1.36,1.44
-2.05533e-02,1.36,1.28
-2.05530e-02,1.36,1.44
-2.05526e-02,1.36,1.28
-2.05523e-02,1.44,1.44
-2.05520e-02,1.36,1.36
-2.05517e-02,1.36,1.44
-2.05514e-02,1.36,1.28
-2.05510e-02,1.36,1.44
-2.05507e-02,1.44,1.28
-2.05504e-02,1.44,1.44
-2.05501e-02,1.44,1.36
-2.05498e-02,1.44,1.52
-2.05494e-02,1.44,1.36
-2.05491e-02,1.44,1.52
-2.05488e-02,1.36,1.36
-2.05485e-02,1.36,1.52
-2.05482e-02,1.28,1.36
-2.05478e-02,1.36,1.44
-2.05475e-02,1.36,1.2
-2.05472e-02,1.44,1.44
-2.05469e-02,1.44,1.28
-2.05466e-02,1.44,1.44
-2.05462e-02,1.52,1.36
-2.05459e-02,1.52,1.52
-2.05456e-02,1.52,1.44
-2.05453e-02,1.52,1.52
-2.05450e-02,1.44,1.44
-2.05446e-02,1.44,1.52
-2.05443e-02,1.44,1.44
-2.05440e-02,1.44,1.52
-2.05437e-02,1.44,1.44
-2.05434e-02,1.44,1.52
-2.05430e-02,1.44,1.36
-2.05427e-02,1.44,1.52
-2.05424e-02,1.44,1.36
-2.05421e-02,1.52,1.52
-2.05418e-02,1.44,1.36
-2.05414e-02,1.44,1.52
-2.05411e-02,1.44,1.36
-2.05408e-02,1.36,1.52
-2.05405e-02,1.44,1.36
-2.05402e-02,1.44,1.44
-2.05398e-02,1.44,1.36
-2.05395e-02,1.44,1.44
-2.05392e-02,1.44,1.36
-2.05389e-02,1.44,1.52
-2.05386e-02,1.36,1.36
-2.05382e-02,1.36,1.52
-2.05379e-02,1.44,1.36
-2.05376e-02,1.44,1.52
-2.05373e-02,1.52,1.36
-2.05370e-02,1.44,1.52
-2.05366e-02,1.44,1.44
-2.05363e-02,1.44,1.52
-2.05360e-02,1.44,1.36
-2.05357e-02,1.44,1.52
-2.05354e-02,1.44,1.36
-2.05350e-02,1.52,1.44
-2.05347e-02,1.44,1.36
-2.05344e-02,1.44,1.52
-2.05341e-02,1.36,1.44
-2.05338e-02,1.44,1.52
-2.05334e-02,1.44,1.36
-2.05331e-02,1.52,1.52
-2.05328e-02,1.44,1.36
-2.05325e-02,1.52,1.52
-2.05322e-02,1.44,1.44
-2.05318e-02,1.44,1.52
-2.05315e-02,1.44,1.36
-2.05312e-02,1.44,1.52
-2.05309e-02,1.52,1.36
-2.05306e-02,1.52,1.52
-2.05302e-02,1.52,1.36
-2.05299e-02,1.44,1.52
-2.05296e-02,1.44,1.44
-2.05293e-02,1.44,1.52
-2.05290e-02,1.44,1.36
-2.05286e-02,1.44,1.52
-2.05283e-02,1.52,1.36
-2.05280e-02,1.52,1.52
-2.05277e-02,1.52,1.44
-2.05274e-02,1.44,1.52
-2.05270e-02,1.44,1.44
-2.05267e-02,1.44,1.52
-2.05264e-02,1.52,1.44
-2.05261e-02,1.52,1.52
-2.05258e-02,1.52,1.44
-2.05254e-02,1.52,1.52
-2.05251e-02,1.52,1.44
-2.05248e-02,1.52,1.6
-2.05245e-02,1.52,1.44
-2.05242e-02,1.52,1.6
-2.05238e-02,1.44,1.44
-2.05235e-02,1.44,1.52
-2.05232e-02,1.44,1.28
-2.05229e-02,1.44,1.52
-2.05226e-02,1.52,1.36
-2.05222e-02,1.52,1.52
-2.05219e-02,1.52,1.44
-2.05216e-02,1.6,1.6
-2.05213e-02,1.6,1.52
-2.05210e-02,1.6,1.6
-2.05206e-02,1.6,1.52
-2.05203e-02,1.6,1.68
-2.05200e-02,1.6,1.52
-2.05197e-02,1.6,1.68
-2.05194e-02,1.52,1.52
-2.05190e-02,1.52,1.6
-2.05187e-02,1.52,1.52
-2.05184e-02,1.52,1.6
-2.05181e-02,1.6,1.52
-2.05178e-02,1.6,1.6
-2.05174e-02,1.6,1.52
-2.05171e-02,1.52,1.6
-2.05168e-02,1.52,1.52
-2.05165e-02,1.52,1.6
-2.05162e-02,1.44,1.44
-2.05158e-02,1.52,1.6
-2.05155e-02,1.52,1.44
-2.05152e-02,1.6,1.52
-2.05149e-02,1.6,1.44
-2.05146e-02,1.52,1.6
-2.05142e-02,1.52,1.52
-2.05139e-02,1.52,1.6
-2.05136e-02,1.52,1.44
-2.05133e-02,1.52,1.6
-2.05130e-02,1.6,1.44
-2.05126e-02,1.6,1.6
-2.05123e-02,1.52,1.52
-2.05120e-02,1.6,1.6
-2.05117e-02,1.52,1.52
-2.05114e-02,1.52,1.6
-2.05110e-02,1.52,1.44
-2.05107e-02,1.6,1.6
-2.05104e-02,1.6,1.52
-2.05101e-02,1.52,1.6
-2.05098e-02,1.52,1.52
-2.05094e-02,1.52,1.6
-2.05091e-02,1.52,1.44
-2.05088e-02,1.52,1.6
-2.05085e-02,1.6,1.44
-2.05082e-02,1.6,1.6
-2.05078e-02,1.6,1.52
-2.05075e-02,1.6,1.6
-2.05072e-02,1.52,1.52
-2.05069e-02,1.52,1.6
-2.05066e-02,1.6,1.44
-2.05062e-02,1.6,1.6
-2.05059e-02,1.6,1.52
-2.05056e-02,1.6,1.6
-2.05053e-02,1.52,1.52
-2.05050e-02,1.52,1.6
-2.05046e-02,1.52,1.52
-2.05043e-02,1.6,1.6
-2.05040e-02,1.6,1.52
-2.05037e-02,1.6,1.6
-2.05034e-02,1.6,1.52
-2.05030e-02,1.52,1.6
-2.05027e-02,1.6,1.52
-2.05024e-02,1.52,1.68
-2.05021e-02,1.6,1.52
-2.05018e-02,1.6,1.6
-2.05014e-02,1.6,1.52
-2.05011e-02,1.68,1.6
-2.05008e-02,1.68,1.52
-2.05005e-02,1.68,1.68
-2.05002e-02,1.6,1.6
-2.04998e-02,1.6,1.76
-2.04995e-02,1.6,1.52
-2.04992e-02,1.6,1.68
-2.04989e-02,1.44,1.52
-2.04986e-02,1.52,1.68
-2.04982e-02,1.6,1.36
-2.04979e-02,1.6,1.6
-2.04976e-02,1.6,1.44
-2.04973e-02,1.68,1.68
-2.04970e-02,1.68,1.52
-2.04966e-02,1.68,1.68
-2.04963e-02,1.68,1.6
-2.04960e-02,1.68,1.76
-2.04957e-02,1.68,1.6
-2.04954e-02,1.68,1.76
-2.04950e-02,1.68,1.6
-2.04947e-02,1.68,1.76
-2.04944e-02,1.68,1.6
-2.04941e-02,1.6,1.68
-2.04938e-02,1.6,1.6
-2.04934e-02,1.6,1.68
-2.04931e-02,1.68,1.6
-2.04928e-02,1.6,1.68
-2.04925e-02,1.6,1.6
-2.04922e-02,1.68,1.68
-2.04918e-02,1.52,1.6
-2.04915e-02,1.6,1.68
-2.04912e-02,1.52,1.52
-2.04909e-02,1.6,1.68
-2.04906e-02,1.68,1.52
-2.04902e-02,1.68,1.6
-2.04899e-02,1.68,1.52
-2.04896e-02,1.6,1.76
-2.04893e-02,1.6,1.6
-2.04890e-02,1.6,1.68
-2.04886e-02,1.6,1.52
-2.04883e-02,1.68,1.68
-2.04880e-02,1.68,1.52
-2.04877e-02,1.68,1.68
-2.04874e-02,1.6,1.6
-2.04870e-02,1.6,1.76
-2.04867e-02,1.6,1.52
-2.04864e-02,1.6,1.68
-2.04861e-02,1.6,1.52
-2.04858e-02,1.6,1.68
-2.04854e-02,1.68,1.52
-2.04851e-02,1.6,1.68
-2.04848e-02,1.6,1.6
-2.04845e-02,1.6,1.68
-2.04842e-02,1.68,1.52
-2.04838e-02,1.6,1.68
-2.04835e-02,1.68,1.52
-2.04832e-02,1.68,1.68
-2.04829e-02,1.68,1.6
-2.04826e-02,1.6,1.68
-2.04822e-02,1.6,1.6
-2.04819e-02,1.6,1.68
-2.04816e-02,1.6,1.52
-2.04813e-02,1.6,1.68
-2.04810e-02,1.68,1.52
-2.04806e-02,1.68,1.68
-2.04803e-02,1.68,1.6
-2.04800e-02,1.6,1.76
-2.04797e-02,1.6,1.6
-2.04794e-02,1.6,1.68
-2.04790e-02,1.68,1.6
-2.04787e-02,1.68,1.68
-2.04784e-02,1.68,1.6
-2.04781e-02,1.68,1.76
-2.04778e-02,1.6,1.6
-2.04774e-02,1.68,1.76
-2.04771e-02,1.68,1.6
-2.04768e-02,1.68,1.68
-2.04765e-02,1.68,1.6
-2.04762e-02,1.76,1.76
-2.04758e-02,1.76,1.6
-2.04755e-02,1.76,1.84
-2.04752e-02,1.68,1.68
-2.04749e-02,1.68,1.84
-2.04746e-02,1.68,1.6
-2.04742e-02,1.68,1.76
-2.04739e-02,1.6,1.6
-2.04736e-02,1.6,1.76
-2.04733e-02,1.6,1.44
-2.04730e-02,1.68,1.68
-2.04726e-02,1.68,1.6
-2.04723e-02,1.68,1.68
-2.04720e-02,1.76,1.6
-2.04717e-02,1.84,1.76
-2.04714e-02,1.76,1.68
-2.04710e-02,1.76,1.84
-2.04707e-02,1.76,1.68
-2.04704e-02,1.76,1.84
-2.04701e-02,1.76,1.68
-2.04698e-02,1.76,1.84
-2.04694e-02,1.76,1.68
-2.04691e-02,1.68,1.84
-2.04688e-02,1.76,1.68
-2.04685e-02,1.76,1.76
-2.04682e-02,1.76,1.6
-2.04678e-02,1.76,1.76
-2.04675e-02,1.68,1.68
-2.04672e-02,1.76,1.76
-2.04669e-02,1.68,1.68
-2.04666e-02,1.68,1.84
-2.04662e-02,1.68,1.6
-2.04659e-02,1.68,1.76
-2.04656e-02,1.76,1.6
-2.04653e-02,1.76,1.76
-2.04650e-02,1.76,1.68
-2.04646e-02,1.68,1.84
-2.04643e-02,1.68,1.68
-2.04640e-02,1.68,1.84
-2.04637e-02,1.68,1.6
-2.04634e-02,1.76,1.76
-2.04630e-02,1.76,1.6
-2.04627e-02,1.76,1.76
-2.04624e-02,1.76,1.68
-2.04621e-02,1.68,1.76
-2.04618e-02,1.68,1.6
-2.04614e-02,1.68,1.84
-2.04611e-02,1.76,1.6
-2.04608e-02,1.68,1.76
-2.04605e-02,1.76,1.68
-2.04602e-02,1.76,1.76
-2.04598e-02,1.68,1.68
-2.04595e-02,1.68,1.84
-2.04592e-02,1.68,1.6
-2.04589e-02,1.76,1.76
-2.04586e-02,1.76,1.6
-2.04582e-02,1.76,1.76
-2.04579e-02,1.76,1.68
-2.04576e-02,1.68,1.84
-2.04573e-02,1.76,1.68
-2.04570e-02,1.68,1.84
-2.04566e-02,1.76,1.68
-2.04563e-02,1.76,1.76
-2.04560e-02,1.76,1.68
-2.04557e-02,1.76,1.84
-2.04554e-02,1.76,1.68
-2.04550e-02,1.68,1.84
-2.04547e-02,1.76,1.68
-2.04544e-02,1.76,1.76
-2.04541e-02,1.76,1.68
-2.04538e-02,1.76,1.84
-2.04534e-02,1.76,1.68
-2.04531e-02,1.76,1.84
-2.04528e-02,1.76,1.68
-2.04525e-02,1.76,1.84
-2.04522e-02,1.76,1.68
-2.04518e-02,1.76,1.76
-2.04515e-02,1.76,1.68
-2.04512e-02,1.76,1.84
-2.04509e-02,1.76,1.68
-2.04506e-02,1.76,1.84
-2.04502e-02,1.84,1.68
-2.04499e-02,1.84,1.84
-2.04496e-02,1.84,1.68
-2.04493e-02,1.84,1.92
-2.04490e-02,1.84,1.68
-2.04486e-02,1.76,1.84
-2.04483e-02,1.6,1.76
-2.04480e-02,1.68,1.84
-2.04477e-02,1.76,1.52
-2.04474e-02,1.76,1.84
-2.04470e-02,1.76,1.6
-2.04467e-02,1.84,1.76
-2.04464e-02,1.84,1.68
-2.04461e-02,1.84,1.84
-2.04458e-02,1.84,1.76
-2.04454e-02,1.84,1.92
-2.04451e-02,1.84,1.76
-2.04448e-02,1.84,1.92
-2.04445e-02,1.84,1.76
-2.04442e-02,1.84,1.92
-2.04438e-02,1.84,1.76
-2.04435e-02,1.84,1.92
-2.04432e-02,1.84,1.76
-2.04429e-02,1.76,1.84
-2.04426e-02,1.76,1.68
-2.04422e-02,1.76,1.84
-2.04419e-02,1.84,1.68
-2.04416e-02,1.84,1.84
-2.04413e-02,1.84,1.76
-2.04410e-02,1.76,1.84
-2.04406e-02,1.68,1.68
-2.04403e-02,1.76,1.84
-2.04400e-02,1.84,1.68
-2.04397e-02,1.84,1.76
-2.04394e-02,1.84,1.68
-2.04390e-02,1.84,1.84
-2.04387e-02,1.76,1.76
-2.04384e-02,1.76,1.84
-2.04381e-02,1.76,1.68
-2.04378e-02,1.84,1.84
-2.04374e-02,1.84,1.68
-2.04371e-02,1.84,1.84
-2.04368e-02,1.84,1.76
-2.04365e-02,1.84,1.92
-2.04362e-02,1.76,1.76
-2.04358e-02,1.76,1.92
-2.04355e-02,1.76,1.68
-2.04352e-02,1.84,1.84
-2.04349e-02,1.84,1.68
-2.04346e-02,1.84,1.84
-2.04342e-02,1.84,1.76
-2.04339e-02,1.84,1.92
-2.04336e-02,1.76,1.68
-2.04333e-02,1.84,1.84
-2.04330e-02,1.84,1.68
-2.04326e-02,1.84,1.84
-2.04323e-02,1.84,1.76
-2.04320e-02,1.84,1.92
-2.04317e-02,1.84,1.76
-2.04314e-02,1.84,1.92
-2.04310e-02,1.84,1.76
-2.04307e-02,1.84,1.84
-2.04304e-02,1.84,1.76
-2.04301e-02,1.84,1.84
-2.04298e-02,1.84,1.76
-2.04294e-02,1.84,1.92
-2.04291e-02,1.76,1.76
-2.04288e-02,1.84,1.84
-2.04285e-02,1.84,1.76
-2.04282e-02,1.84,1.84
-2.04278e-02,1.84,1.76
-2.04275e-02,1.84,1.92
-2.04272e-02,1.84,1.76
-2.04269e-02,1.84,1.92
-2.04266e-02,1.84,1.76
-2.04262e-02,1.84,1.92
-2.04259e-02,1.84,1.76
-2.04256e-02,1.84,1.84
-2.04253e-02,1.84,1.76
-2.04250e-02,1.84,1.92
-2.04246e-02,1.92,1.76
-2.04243e-02,1.92,1.92
-2.04240e-02,1.84,1.76
-2.04237e-02,1.84,1.92
-2.04234e-02,1.84,1.84
-2.04230e-02,1.84,1.92
-2.04227e-02,1.84,1.76
-2.04224e-02,1.76,1.92
-2.04221e-02,1.76,1.6
-2.04218e-02,1.84,2
-2.04214e-02,1.84,1.68
-2.04211e-02,1.92,1.84
-2.04208e-02,1.84,1.76
-2.04205e-02,1.92,1.92
-2.04202e-02,1.92,1.84
-2.04198e-02,1.92,1.92
-2.04195e-02,1.92,1.84
-2.04192e-02,1.92,2
-2.04189e-02,1.92,1.84
-2.04186e-02,1.92,2
-2.04182e-02,1.92,1.84
-2.04179e-02,1.84,2
-2.04176e-02,1.84,1.84
-2.04173e-02,1.84,2
-2.04170e-02,1.84,1.76
-2.04166e-02,1.92,1.92
-2.04163e-02,1.92,1.76
-2.04160e-02,1.92,1.92
-2.04157e-02,1.92,1.84
-2.04154e-02,1.84,2
-2.04150e-02,1.84,1.76
-2.04147e-02,1.84,1.92
-2.04144e-02,1.84,1.76
-2.04141e-02,1.92,1.84
-2.04138e-02,1.92,1.76
-2.04134e-02,1.92,1.92
-2.04131e-02,1.92,1.84
-2.04128e-02,1.84,1.92
-2.04125e-02,1.84,1.76
-2.04122e-02,1.84,1.92
-2.04118e-02,1.92,1.76
-2.04115e-02,2,1.92
-2.04112e-02,1.84,1.76
-2.04109e-02,1.92,2
-2.04106e-02,1.92,1.84
-2.04102e-02,1.84,2
-2.04099e-02,1.92,1.76
-2.04096e-02,1.92,1.92
-2.04093e-02,1.92,1.76
-2.04090e-02,1.92,1.92
-2.04086e-02,1.92,1.84
-2.04083e-02,1.84,2
-2.04080e-02,1.84,1.84
-2.04077e-02,1.84,1.92
-2.04074e-02,1.92,1.76
-2.04070e-02,1.92,1.92
-2.04067e-02,1.92,1.84
-2.04064e-02,1.92,1.92
-2.04061e-02,1.92,1.84
-2.04058e-02,1.92,2
-2.04054e-02,1.92,1.84
-2.04051e-02,1.92,1.92
-2.04048e-02,1.92,1.84
-2.04045e-02,1.92,1.92
-2.04042e-02,1.92,1.84
-2.04038e-02,1.92,2
-2.04035e-02,1.92,1.84
-2.04032e-02,1.92,2
-2.04029e-02,1.92,1.84
-2.04026e-02,1.92,1.92
-2.04022e-02,1.92,1.84
-2.04019e-02,1.92,2
-2.04016e-02,1.92,1.84
-2.04013e-02,1.92,2
-2.04010e-02,1.92,1.84
-2.04006e-02,1.92,2
-2.04003e-02,1.92,1.84
-2.04000e-02,1.92,1.92
-2.03997e-02,1.92,1.84
-2.03994e-02,1.92,2
-2.03990e-02,2,1.84
-2.03987e-02,2,2
-2.03984e-02,1.92,1.84
-2.03981e-02,2,2.08
-2.03978e-02,1.92,1.92
-2.03974e-02,2,2
-2.03971e-02,1.92,1.84
-2.03968e-02,1.84,2
-2.03965e-02,1.84,1.68
-2.03962e-02,1.92,2
-2.03958e-02,1.92,1.76
-2.03955e-02,2,1.92
-2.03952e-02,2,1.84
-2.03949e-02,2,2
-2.03946e-02,2,1.92
-2.03942e-02,2,2.08
-2.03939e-02,2,1.92
-2.03936e-02,2,2.08
-2.03933e-02,2,2
-2.03930e-02,2,2.08
-2.03926e-02,2,1.92
-2.03923e-02,2,2.08
-2.03920e-02,2,1.92
-2.03917e-02,1.92,2.08
-2.03914e-02,2,1.84
-2.03910e-02,2,2
-2.03907e-02,2,1.92
-2.03904e-02,2,2
-2.03901e-02,2,1.92
-2.03898e-02,1.92,2.08
-2.03894e-02,1.92,1.92
-2.03891e-02,1.92,2.08
-2.03888e-02,1.92,1.84
-2.03885e-02,2,2
-2.03882e-02,2,1.84
-2.03878e-02,2,2
-2.03875e-02,2,1.92
-2.03872e-02,1.92,2.08
-2.03869e-02,1.92,1.92
-2.03866e-02,1.92,2
-2.03862e-02,2,1.84
-2.03859e-02,2,2
-2.03856e-02,2,1.92
-2.03853e-02,1.92,2.08
-2.03850e-02,1.92,1.92
-2.03846e-02,1.92,2.08
-2.03843e-02,1.92,1.84
-2.03840e-02,2,2
-2.03837e-02,2,1.84
-2.03834e-02,2,2
-2.03830e-02,2,1.92
-2.03827e-02,1.92,2.08
-2.03824e-02,1.92,1.92
-2.03821e-02,2,2.08
-2.03818e-02,2,1.84
-2.03814e-02,2,2
-2.03811e-02,2,1.84
-2.03808e-02,2,2.08
-2.03805e-02,1.92,1.92
-2.03802e-02,1.92,2.08
-2.03798e-02,1.92,1.92
-2.03795e-02,2,2
-2.03792e-02,2,1.92
-2.03789e-02,2,2
-2.03786e-02,2,1.92
-2.03782e-02,2,2.08
-2.03779e-02,2,1.92
-2.03776e-02,1.92,2.08
-2.03773e-02,2,1.92
-2.03770e-02,2,2
-2.03766e-02,2,1.92
-2.03763e-02,2,2.08
-2.03760e-02,2,1.92
-2.03757e-02,2,2.08
-2.03754e-02,2,1.92
-2.03750e-02,2,2.08
-2.03747e-02,2,1.92
-2.03744e-02,2,2
-2.03741e-02,2,1.92
-2.03738e-02,2,2.08
-2.03734e-02,2.08,1.92
-2.03731e-02,2.08,2.08
-2.03728e-02,2,1.92
-2.03725e-02,2,2.16
-2.03722e-02,2,2
-2.03718e-02,2.08,2.08
-2.03715e-02,1.92,1.92
-2.03712e-02,1.92,2.08
-2.03709e-02,2,1.76
-2.03706e-02,2,2.08
-2.03702e-02,2,1.84
-2.03699e-02,2.08,2
-2.03696e-02,2.08,1.92
-2.03693e-02,2.16,2.16
-2.03690e-02,2.08,2
-2.03686e-02,2.08,2.16
-2.03683e-02,2.08,2
-2.03680e-02,2.08,2.16
-2.03677e-02,2.08,2
-2.03674e-02,2.08,2.16
-2.03670e-02,2.08,2
-2.03667e-02,2,2.16
-2.03664e-02,2,2
-2.03661e-02,2.08,2.16
-2.03658e-02,2.08,2
-2.03654e-02,2.08,2.08
-2.03651e-02,2.08,2
-2.03648e-02,2.08,2.16
-2.03645e-02,2.08,2
-2.03642e-02,2,2.16
-2.03638e-02,2,2
-2.03635e-02,2,2.16
-2.03632e-02,2.08,1.92
-2.03629e-02,2.08,2.08
-2.03626e-02,2.08,1.92
-2.03622e-02,2.08,2.08
-2.03619e-02,2,2
-2.03616e-02,2,2.16
-2.03613e-02,2,1.92
-2.03610e-02,2.08,2.16
-2.03606e-02,2.08,1.92
-2.03603e-02,2.08,2.08
-2.03600e-02,2.08,2
-2.03597e-02,2.08,2.16
-2.03594e-02,2,2
-2.03590e-02,2,2.16
-2.03587e-02,2,1.92
-2.03584e-02,2.08,2.08
-2.03581e-02,2.08,2
-2.03578e-02,2.08,2.08
-2.03574e-02,2.08,2
